{
  "data": {
    "loanConfig": {
      "loanId": "1",
      "borrowerName": "Testborrower",
      "lenderName": "TestLender",
      "interestType": "floating",
      "interestMargin": 2.0
    },
    "agreement": {
      "type": "agreement",
      "id": "1",
      "loanId": "1",
      "version": "1",
      "properties": {
        "test": "test"
      },
      "template": true,
      "document": {
        "type": "document",
        "preamble": [],
        "sections": [
          {
            "type": "section",
            "sectionNumber": "1",
            "heading":  {
              "type": "heading",
              "title": "Interest",
              "level": 1,

              "bookmarks": {}
            },
            "preamble": [],
            "subsections": [
              {
                "type": "subsection",
                "sectionNumber": "1.1",
                "heading": {
                  "type": "heading",
                  "title": "Calculation of interest",
                  "level": 2,

                  "bookmarks": {}
                },
                "content": [
                  {
                    "type": "view_doc",
                    "title": "test_1",
                    "conditionRule": { "==": [{ "var": "interestType" }, "floating"] },
                    "doc": {
                      "type": "doc",
                      "content": [
                        {
                          "type": "paragraph",
                          "content": [
                            {
                              "type": "text",
                              "text": "Test Text für interestType = floating"
                            }
                          ]
                        },
                        {
                          "type": "paragraph",
                          "content": [
                            {
                              "type": "text",
                              "text": "The interest is calculated with the "
                            },
                            {
                              "type": "merge_tag",
                              "tag": "margin",
                              "query": "{ \"var\" : \"interestMargin\" }"
                            },
                            {
                              "type": "text",
                              "text": " and LIBOR "
                            }
                          ]
                        }
                      ]
                    }
                  },
                  {
                    "type": "view_doc",
                    "title": "test_1",
                    "conditionRule": { "==": [{ "var": "interestType" }, "fixed"] },
                    "doc": {
                      "type": "doc",
                      "content": [
                        {
                          "type": "paragraph",
                          "content": [
                            {
                              "type": "text",
                              "text": "Test Text für interestType = fixed"
                            }
                          ]
                        }
                      ]
                    }
                  },
                  {
                    "type": "edit_doc",
                    "title": "edit_doc_test",
                    "doc": {
                      "type": "doc",
                      "content": [
                        {
                          "type": "paragraph",
                          "content": [
                            {
                              "type": "text",
                              "text": "Test Text for Edit Doc"
                            }
                          ]
                        },
                        {
                          "type": "paragraph",
                          "content": [
                            {
                              "type": "text",
                              "text": "Test Text for Edit Doc"
                            }
                          ]
                        }
                      ]
                    }
                  }
                ]
              }
            ]
          }
        ]
      }
    }
  }

}
