{
  "Table": {
    "Tablename": "templates",
    "KeySchema": [
      {
        "AttributeName": "id",
        "KeyType": "HASH"
      }
    ],
    "AttributeDefinitions": [
      {
        "AttributeName": "id",
        "AttributeType": "S"
      }
    ]
  }
}
